Grp,Site,d13C,dd13C,d15N,dd15N,gp,n,SampleCode
Preys,a,-28,1,10.1,0.8,A,17,GER14S1
Preys,b,-28.3,1.1,10.2,1.1,A,16,GER14S2
Preys,c,-34.5,1.8,11.9,0.7,A,11,GER14S3
Preys,d,-32.1,1.6,11.5,0.8,A,24,GER14S4
Preys,e,-30.5,2.3,11.3,2,A,14,GER14S5
Preys,f,-29.5,2,11.2,1.6,A,19,GER14S6
Preys,g,-27.5,1.7,10.4,0.9,A,17,GER14S7
Preys,h,-28.2,1.6,10.6,1.1,A,11,GER14S8
Preys,I,-26.8,1,9.7,1.7,A,14,GER14S9
Tetragnatha,a,-28,0.4,10.1,1.4,P,8,GER14S1
Pirata,a,-27.9,1.1,10.7,0.6,P,6,GER14S1
Tetragnatha,b,-27.6,0.4,9.8,1.1,P,6,GER14S2
Pirata,b,-28,0.5,10.9,0.9,P,8,GER14S2
Tetragnatha,c,-29.5,1.4,9.9,1.4,P,6,GER14S3
Pirata,c,-27.8,0.4,9.4,2.8,P,5,GER14S3
Tetragnatha,d,-27.9,1.3,9.1,1.5,P,7,GER14S4
Pirata,d,-27.8,0.9,8.7,2.6,P,9,GER14S4
Tetragnatha,e,-27.6,0.5,7.8,1.1,P,9,GER14S5
Pirata,e,-27.1,0.5,8.5,1.6,P,7,GER14S5
Tetragnatha,f,-28.5,0.8,11.5,1.1,P,10,GER14S6
Pirata,f,-27.2,0.7,8.7,1.3,P,11,GER14S6
Tetragnatha,g,-27.8,0.6,10.7,0.6,P,10,GER14S7
Pirata,g,-26.7,0.5,10.8,0.7,P,10,GER14S7
Tetragnatha,h,-28.3,0.6,10.3,0.8,P,8,GER14S8
Pirata,h,-28.7,0.7,12.4,0.8,P,11,GER14S8
Tetragnatha,i,-27.2,0.5,8.5,1.5,P,10,GER14S9
Pirata,i,-26.8,0.8,10.2,1,P,6,GER14S9
Preys,a,-27.8,2.2,7.7,0.8,T,10,GER14S1
Preys,b,-27.9,1.1,8.6,1.4,T,8,GER14S2
Preys,c,-27,0.7,4.6,1.7,T,16,GER14S3
Preys,d,-26.8,1.3,6.4,2.9,T,14,GER14S4
Preys,e,-26.8,1.6,6.1,1.9,T,14,GER14S5
Preys,f,-26.4,1.1,7.2,2.3,T,15,GER14S6
Preys,g,-26.7,1.1,9,2.1,T,14,GER14S7
Preys,h,-28.1,0.4,7.9,0.8,T,6,GER14S8
Preys,I,-27.1,1.1,8.6,0.6,T,7,GER14S9
