River,Site,Group,d15N,d13C,SampleCode
Cata,Downstream,Brown trout,8.73,-22.27,
Cata,Downstream,Brown trout,8.79,-22.46,
Cata,Downstream,Brown trout,8.7,-23.07,
Cata,Downstream,Brown trout,8.56,-21.5,
Cata,Downstream,Brown trout,8.88,-21.35,
Cata,Downstream,Brown trout,9.31,-22.87,
Cata,Downstream,Brown trout,8.71,-21.26,
Cata,Downstream,Brown trout,9.52,-21.35,
Cata,Downstream,Brown trout,10.52,-22.08,
Cata,Downstream,Brown trout,9.97,-22.42,
Cata,Downstream,Brown trout,9.84,-22.23,
Cata,Downstream,Brown trout,9.3,-22.62,
Cata,Downstream,Brown trout,10.03,-21.6,
Cata,Downstream,Brown trout,10.07,-22.8,
Cata,Downstream,Brown trout,9.86,-21.4,
Cata,Downstream,Brown trout,9.67,-21.78,
Cata,Downstream,Brown trout,9.75,-22.2,
Cata,Downstream,Brown trout,9.12,-22.64,
Cata,Downstream,Brown trout,9.64,-22.04,
Cata,Downstream,Brown trout,9.63,-22.78,
Cata,Downstream,Brown trout,9.64,-22.62,
Cata,Downstream,Brown trout,9.81,-22.17,
Cata,Downstream,Brown trout,9.57,-22.75,
Cata,Downstream,Brown trout,10.39,-22.41,
Cata,Downstream,Brown trout,9.76,-22.35,
Cata,Downstream,Brown trout,9.69,-21.81,
Cata,Downstream,Brown trout,9.68,-21.84,
Cata,Downstream,Brown trout,9.43,-22.04,
Cata,Downstream,Brown trout,10.54,-21.56,
Cata,Downstream,Brown trout,10.59,-20.93,
Cata,Downstream,Brown trout,10.21,-21.26,
Cata,Downstream,Ground spider,8.74,-20.26,
Cata,Downstream,Ground spider,8.45,-16.96,
Cata,Downstream,Ground spider,8.87,-13.9,
Cata,Downstream,Ground spider,12.39,-19.41,
Cata,Downstream,Ground spider,10.42,-13.99,
Cata,Downstream,Ground spider,9.43,-15.82,
Cata,Downstream,Ground spider,8.46,-23.39,
Cata,Downstream,Ground spider,9.18,-21.82,
Cata,Downstream,Ground spider,12.29,-19.44,
Cata,Downstream,Web Spider,8.74,-24.51,
Cata,Downstream,Web Spider,7.38,-24.31,
Cata,Downstream,Web Spider,8.13,-23.46,
Cata,Downstream,Web Spider,7.43,-24.54,
Cata,Downstream,Web Spider,9.52,-21.23,
Cata,Downstream,Web Spider,9.54,-18.27,
Cata,Downstream,Web Spider,8.43,-20.15,
Cata,Downstream,Web Spider,10.58,-21.94,
Cata,Downstream,Web Spider,8.45,-22.95,
Cata,Upstream,Ground spider,5.71,-25.2,
Cata,Upstream,Ground spider,5.66,-26,
Cata,Upstream,Ground spider,5.67,-27.41,
Cata,Upstream,Web Spider,6.74,-25.4,
Cata,Upstream,Web Spider,9.21,-24.98,
Cata,Upstream,Web Spider,7.83,-24.45,
Cata,Upstream,Web Spider,7.14,-25.56,
Cata,Upstream,Web Spider,6.65,-25.1,
Cata,Upstream,Web Spider,7.17,-24.82,
Cata,Upstream,Web Spider,5.34,-25.82,
Cata,Upstream,Web Spider,6.72,-25.22,
Cata,Upstream,Web Spider,6.05,-25.41,
Cata,Upstream,Web Spider,5.99,-24.52,
Cata,Upstream,Web Spider,6.71,-24.31,
Cata,Upstream,Web Spider,6.76,-24.87,
Cata,Upstream,Web Spider,6.17,-25.14,
Cata,Upstream,Web Spider,4.78,-25.87,
Cata,Upstream,Web Spider,6.63,-24.04,
Cata,Upstream,Web Spider,7.38,-24.89,
Cata,Upstream,Web Spider,6.32,-24.52,
Cata,Upstream,Web Spider,6.09,-25.96,
Cata,Upstream,Web Spider,4.27,-24.87,
Cata,Upstream,Web Spider,5.83,-24.81,
Cata,Upstream,Web Spider,7.29,-24.53,
Cata,Upstream,Web Spider,6.22,-25.66,
Cata,Upstream,Web Spider,6.57,-24.79,
Cata,Upstream,Web Spider,6.37,-24.74,
Cata,Upstream,Web Spider,4.69,-25.67,
Cata,Upstream,Web Spider,5.76,-24.62,
Cata,Upstream,Web Spider,5.27,-25.78,
Cata,Upstream,Web Spider,5.97,-25.94,
Cata,Upstream,Web Spider,7.32,-25.13,
Cata,Upstream,Web Spider,6.24,-24.86,
Cata,Upstream,Web Spider,4.99,-26.83,
Gwiligwili,Downstream,Border barb,9.06,-24.07,
Gwiligwili,Downstream,Border barb,9.41,-22.53,
Gwiligwili,Downstream,Border barb,8.77,-24.82,
Gwiligwili,Downstream,Border barb,8.53,-23.88,
Gwiligwili,Downstream,Border barb,8.94,-24.33,
Gwiligwili,Downstream,Border barb,9.47,-23.46,
Gwiligwili,Downstream,Border barb,8.78,-23.99,
Gwiligwili,Downstream,Border barb,9.35,-23.16,
Gwiligwili,Downstream,Border barb,9.6,-23.45,
Gwiligwili,Downstream,Border barb,9.55,-22.93,
Gwiligwili,Downstream,Border barb,9.17,-22.82,
Gwiligwili,Downstream,Border barb,9.02,-22.62,
Gwiligwili,Downstream,Border barb,9.15,-22.12,
Gwiligwili,Downstream,Border barb,8.94,-22.54,
Gwiligwili,Downstream,Border barb,8.83,-23.21,
Gwiligwili,Downstream,Border barb,8.96,-22.35,
Gwiligwili,Downstream,Border barb,8.98,-22.96,
Gwiligwili,Downstream,Border barb,8.95,-24.76,
Gwiligwili,Downstream,Border barb,9.27,-22.04,
Gwiligwili,Downstream,Border barb,9.17,-24.03,
Gwiligwili,Downstream,Border barb,9.01,-24.75,
Gwiligwili,Downstream,Border barb,9.26,-24.09,
Gwiligwili,Downstream,Border barb,9.29,-23.45,
Gwiligwili,Downstream,Border barb,9.07,-23.37,
Gwiligwili,Downstream,Border barb,9.04,-23.92,
Gwiligwili,Downstream,Chubby barb,12.47,-24.99,
Gwiligwili,Downstream,Chubby barb,9.5,-23.9,
Gwiligwili,Downstream,Chubby barb,9.13,-23.87,
Gwiligwili,Downstream,Chubby barb,9.74,-23.92,
Gwiligwili,Downstream,Ground spider,4.19,-25.76,
Gwiligwili,Downstream,Ground spider,6.92,-23.59,
Gwiligwili,Downstream,Ground spider,7.37,-22.42,
Gwiligwili,Downstream,Ground spider,6.12,-26.1,
Gwiligwili,Downstream,Ground spider,6.76,-23.79,
Gwiligwili,Downstream,Ground spider,6.83,-24.48,
Gwiligwili,Downstream,Ground spider,7.27,-24.26,
Gwiligwili,Downstream,Ground spider,7.13,-21.21,
Gwiligwili,Downstream,Ground spider,6.37,-23.6,
Gwiligwili,Downstream,Ground spider,7.97,-25.1,
Gwiligwili,Downstream,Ground spider,5.74,-23.76,
Gwiligwili,Downstream,Web Spider,8.42,-25.41,
Gwiligwili,Downstream,Web Spider,6.22,-23.39,
Gwiligwili,Downstream,Web Spider,8.02,-24.76,
Gwiligwili,Downstream,Web Spider,7.92,-24.02,
Gwiligwili,Downstream,Web Spider,5.55,-24.71,
Gwiligwili,Downstream,Web Spider,4.25,-24.74,
Gwiligwili,Downstream,Web Spider,6.89,-22.78,
Gwiligwili,Downstream,Web Spider,6.18,-22.16,
Gwiligwili,Upstream,Ground spider,7.89,-23.92,
Gwiligwili,Upstream,Ground spider,5.65,-25.84,
Gwiligwili,Upstream,Ground spider,6,-26.28,
Gwiligwili,Upstream,Ground spider,6.7,-24.93,
Gwiligwili,Upstream,Ground spider,6.25,-25.14,
Gwiligwili,Upstream,Ground spider,6.2,-24.31,
Gwiligwili,Upstream,Ground spider,6.47,-25.04,
Gwiligwili,Upstream,Ground spider,6.83,-27.21,
Gwiligwili,Upstream,Ground spider,5.4,-27.23,
Gwiligwili,Upstream,Ground spider,7.13,-25.88,
Gwiligwili,Upstream,Ground spider,8.37,-24.87,
Gwiligwili,Upstream,Web Spider,7.86,-25.15,
Gwiligwili,Upstream,Web Spider,4.28,-25.39,
Gwiligwili,Upstream,Web Spider,6.27,-24.8,
Gwiligwili,Upstream,Web Spider,7.06,-25.49,
Gwiligwili,Upstream,Web Spider,5.37,-25.93,
Gwiligwili,Upstream,Web Spider,5.72,-25.85,
Gwiligwili,Upstream,Web Spider,7.28,-25.29,
Gwiligwili,Upstream,Web Spider,7.37,-27.21,
Gwiligwili,Upstream,Web Spider,7.33,-25.06,
Gwiligwili,Upstream,Web Spider,7.28,-24.29,
Gwiligwili,Upstream,Web Spider,6.92,-25.58,
Gwiligwili,Upstream,Web Spider,7.48,-25.5,
Lotheni,Downstream,Brown trout,4.23,-21.57,JAC16S6
Lotheni,Downstream,Brown trout,4.2,-22.25,JAC16S6
Lotheni,Downstream,Brown trout,4.3,-22.08,JAC16S6
Lotheni,Downstream,Brown trout,4.13,-22.42,JAC16S6
Lotheni,Downstream,Brown trout,4.31,-21.83,JAC16S6
Lotheni,Downstream,Brown trout,4.51,-21.79,JAC16S6
Lotheni,Downstream,Brown trout,4.66,-21.92,JAC16S6
Lotheni,Downstream,Brown trout,4.37,-22.35,JAC16S6
Lotheni,Downstream,Ground spider,2.57,-19.67,JAC16S6
Lotheni,Downstream,Ground spider,4.98,-20.11,JAC16S6
Lotheni,Downstream,Ground spider,4.74,-21.45,JAC16S6
Lotheni,Downstream,Ground spider,4.59,-21.5,JAC16S6
Lotheni,Downstream,Ground spider,2.84,-24.19,JAC16S6
Lotheni,Downstream,Ground spider,4.36,-23.49,JAC16S6
Lotheni,Downstream,Ground spider,4.69,-22.77,JAC16S6
Lotheni,Downstream,Web Spider,1.01,-21.56,JAC16S6
Lotheni,Downstream,Web Spider,2.05,-22.45,JAC16S6
Lotheni,Downstream,Web Spider,4.8,-20.16,JAC16S6
Lotheni,Downstream,Web Spider,4.57,-21.21,JAC16S6
Lotheni,Downstream,Web Spider,6.19,-19.82,JAC16S6
Lotheni,Downstream,Web Spider,3.28,-21.78,JAC16S6
Lotheni,Upstream,Ground spider,3.19,-21.79,JAC16S5
Lotheni,Upstream,Ground spider,3.2,-21.74,JAC16S5
Lotheni,Upstream,Ground spider,4.57,-20.15,JAC16S5
Lotheni,Upstream,Ground spider,3.56,-19.18,JAC16S5
Lotheni,Upstream,Ground spider,4.85,-23.31,JAC16S5
Lotheni,Upstream,Web Spider,3.72,-23.4,JAC16S5
Lotheni,Upstream,Web Spider,4.32,-20.69,JAC16S5
Lotheni,Upstream,Web Spider,2.1,-23.52,JAC16S5
Lotheni,Upstream,Web Spider,2.19,-23.12,JAC16S5
Lotheni,Upstream,Web Spider,4.97,-20.25,JAC16S5
Lotheni,Upstream,Web Spider,2.71,-24.1,JAC16S5
Lotheni,Upstream,Web Spider,2.47,-22.73,JAC16S5
Lotheni,Upstream,Web Spider,6.26,-22.34,JAC16S5
Lotheni,Upstream,Web Spider,3.65,-24.11,JAC16S5
Mnyameni,Downstream,Ground spider,7.99,-24.28,
Mnyameni,Downstream,Ground spider,6.38,-24.24,
Mnyameni,Downstream,Ground spider,6.53,-23.59,
Mnyameni,Downstream,Ground spider,6.55,-22.68,
Mnyameni,Downstream,Ground spider,6.1,-23.36,
Mnyameni,Downstream,Ground spider,5.77,-24.94,
Mnyameni,Downstream,Ground spider,6.14,-25.35,
Mnyameni,Downstream,Ground spider,6.06,-23.52,
Mnyameni,Downstream,Ground spider,8.7,-24.7,
Mnyameni,Downstream,Ground spider,5.61,-20.47,
Mnyameni,Downstream,Rainbow trout,7.82,-21.7,
Mnyameni,Downstream,Rainbow trout,8.18,-22.58,
Mnyameni,Downstream,Rainbow trout,7.99,-20.61,
Mnyameni,Downstream,Rainbow trout,7.81,-22.49,
Mnyameni,Downstream,Rainbow trout,8.16,-22.51,
Mnyameni,Downstream,Rainbow trout,7.8,-22.74,
Mnyameni,Downstream,Rainbow trout,7.75,-22.9,
Mnyameni,Downstream,Rainbow trout,7.85,-22.84,
Mnyameni,Downstream,Rainbow trout,7.76,-22.49,
Mnyameni,Downstream,Rainbow trout,7.84,-22.68,
Mnyameni,Downstream,Rainbow trout,7.97,-22.85,
Mnyameni,Downstream,Rainbow trout,7.99,-21.03,
Mnyameni,Downstream,Rainbow trout,7.73,-22.53,
Mnyameni,Downstream,Rainbow trout,7.68,-22.45,
Mnyameni,Downstream,Rainbow trout,7.68,-22.94,
Mnyameni,Downstream,Rainbow trout,8.06,-22.54,
Mnyameni,Downstream,Rainbow trout,7.92,-22.61,
Mnyameni,Downstream,Rainbow trout,7.93,-21.5,
Mnyameni,Downstream,Rainbow trout,8.9,-20.82,
Mnyameni,Downstream,Rainbow trout,8.96,-21.61,
Mnyameni,Downstream,Rainbow trout,8.65,-20.08,
Mnyameni,Downstream,Rainbow trout,8.84,-20.86,
Mnyameni,Downstream,Rainbow trout,8.68,-21.45,
Mnyameni,Downstream,Rainbow trout,9.1,-20.75,
Mnyameni,Downstream,Rainbow trout,9.04,-21.34,
Mnyameni,Downstream,Rainbow trout,9.63,-23.28,
Mnyameni,Downstream,Rainbow trout,8.66,-21.32,
Mnyameni,Downstream,Rainbow trout,9.04,-21.3,
Mnyameni,Downstream,Rainbow trout,9.09,-21.11,
Mnyameni,Downstream,Rainbow trout,8.39,-22.14,
Mnyameni,Downstream,Rainbow trout,8.6,-21.15,
Mnyameni,Downstream,Rainbow trout,9.02,-21,
Mnyameni,Downstream,Rainbow trout,8.71,-21.83,
Mnyameni,Downstream,Rainbow trout,9,-20.98,
Mnyameni,Downstream,Web Spider,5.12,-25.99,
Mnyameni,Downstream,Web Spider,7.2,-22.65,
Mnyameni,Downstream,Web Spider,5.18,-26.26,
Mnyameni,Downstream,Web Spider,7.33,-23.39,
Mnyameni,Downstream,Web Spider,7.61,-24.58,
Mnyameni,Downstream,Web Spider,8.02,-23.72,
Mnyameni,Upstream,Ground spider,6.63,-25.3,
Mnyameni,Upstream,Ground spider,4.82,-27.05,
Mnyameni,Upstream,Ground spider,5.04,-26.91,
Mnyameni,Upstream,Ground spider,8.23,-25.1,
Mnyameni,Upstream,Web Spider,5.93,-24.89,
Mnyameni,Upstream,Web Spider,6.23,-23.38,
Mnyameni,Upstream,Web Spider,6.67,-25.41,
Mnyameni,Upstream,Web Spider,4.51,-25.12,
Mnyameni,Upstream,Web Spider,6.48,-25.64,
Mnyameni,Upstream,Web Spider,5.34,-25.56,
Mnyameni,Upstream,Web Spider,6.58,-24.48,
Mnyameni,Upstream,Web Spider,5.57,-24.23,
Mnyameni,Upstream,Web Spider,6.48,-25.25,
Mnyameni,Upstream,Web Spider,5.29,-25.86,
Mnyameni,Upstream,Web Spider,5.47,-24.04,
Mnyameni,Upstream,Web Spider,8.06,-25.09,
Mnyameni,Upstream,Web Spider,5.62,-25.61,
Mnyameni,Upstream,Web Spider,5.9,-24.71,
Mnyameni,Upstream,Web Spider,5.69,-25.73,
Mnyameni,Upstream,Web Spider,8.45,-24.8,
Mnyameni,Upstream,Web Spider,5.91,-24.33,
Mnyameni,Upstream,Web Spider,5.71,-24.75,
Mnyameni,Upstream,Web Spider,6.8,-24.49,
Mnyameni,Upstream,Web Spider,8.47,-23.75,
Mnyameni,Upstream,Web Spider,6.14,-23.55,
Mnyameni,Upstream,Web Spider,7.46,-24.03,
Mnyameni,Upstream,Web Spider,5.19,-24.59,
Mnyameni,Upstream,Web Spider,7.76,-23.62,
Mnyameni,Upstream,Web Spider,4.84,-24.01,
Mnyameni,Upstream,Web Spider,5.77,-23.92,
Mnyameni,Upstream,Web Spider,8.31,-24.21,
Mnyameni,Upstream,Web Spider,8.06,-23.59,
Mnyameni,Upstream,Web Spider,6.58,-24.15,
Mnyameni,Upstream,Web Spider,5.65,-23.5,
Mooi,Downstream,Brown trout,6.08,-18.37,JAC16S4
Mooi,Downstream,Brown trout,5.81,-18.31,JAC16S4
Mooi,Downstream,Brown trout,5.55,-18.74,JAC16S4
Mooi,Downstream,Brown trout,5.74,-19.48,JAC16S4
Mooi,Downstream,Brown trout,6.31,-19.25,JAC16S4
Mooi,Downstream,Brown trout,5.66,-19.04,JAC16S4
Mooi,Downstream,Brown trout,5.8,-18.55,JAC16S4
Mooi,Downstream,Brown trout,5.46,-19.65,JAC16S4
Mooi,Downstream,Brown trout,5.71,-18.61,JAC16S4
Mooi,Downstream,Brown trout,6.06,-19.52,JAC16S4
Mooi,Downstream,Brown trout,5.56,-19.38,JAC16S4
Mooi,Downstream,Brown trout,5.57,-18.83,JAC16S4
Mooi,Downstream,Brown trout,6.01,-19.19,JAC16S4
Mooi,Downstream,Brown trout,6.74,-16.69,JAC16S4
Mooi,Downstream,Ground spider,4.67,-19.98,JAC16S4
Mooi,Downstream,Ground spider,5.81,-18.89,JAC16S4
Mooi,Downstream,Ground spider,5,-19,JAC16S4
Mooi,Downstream,Web Spider,7.5,-15.67,JAC16S4
Mooi,Downstream,Web Spider,5.01,-19.45,JAC16S4
Mooi,Downstream,Web Spider,6.08,-18.8,JAC16S4
Mooi,Downstream,Web Spider,4.81,-19.64,JAC16S4
Mooi,Downstream,Web Spider,5.22,-17.31,JAC16S4
Mooi,Downstream,Web Spider,3.77,-17.35,JAC16S4
Mooi,Downstream,Web Spider,2.29,-12.9,JAC16S4
Mooi,Downstream,Web Spider,2.06,-12.56,JAC16S4
Mooi,Downstream,Web Spider,4.82,-18.19,JAC16S4
Mooi,Downstream,Web Spider,4.91,-22.39,JAC16S4
Mooi,Downstream,Web Spider,5.43,-20.91,JAC16S4
Mooi,Downstream,Web Spider,8.54,-25.93,JAC16S4
Mooi,Downstream,Web Spider,2.76,-19.89,JAC16S4
Mooi,Upstream,Ground spider,5.1,-19.01,JAC16S3
Mooi,Upstream,Ground spider,4.13,-21.97,JAC16S3
Mooi,Upstream,Ground spider,6.11,-17.25,JAC16S3
Mooi,Upstream,Ground spider,5.85,-19.68,JAC16S3
Mooi,Upstream,Web Spider,4.81,-21.06,JAC16S3
Mooi,Upstream,Web Spider,5.55,-20.07,JAC16S3
Mooi,Upstream,Web Spider,6.58,-17.31,JAC16S3
Mooi,Upstream,Web Spider,4.48,-22.32,JAC16S3
Mooi,Upstream,Web Spider,7.47,-20.21,JAC16S3
Mooi,Upstream,Web Spider,5.45,-21.06,JAC16S3
Mooi,Upstream,Web Spider,4.82,-20.86,JAC16S3
Mooi,Upstream,Web Spider,3.88,-21.67,JAC16S3
Mooi,Upstream,Web Spider,4.02,-21.62,JAC16S3
Mooi,Upstream,Web Spider,4.71,-20.47,JAC16S3
Mooi,Upstream,Web Spider,4.58,-21.27,JAC16S3
Mooi,Upstream,Web Spider,4.33,-21.56,JAC16S3
Mooi,Upstream,Web Spider,4.44,-21.91,JAC16S3
Mooi,Upstream,Web Spider,4.11,-22.82,JAC16S3
Mooi,Upstream,Web Spider,4.2,-21.1,JAC16S3
Mooi,Upstream,Web Spider,4.97,-21.69,JAC16S3
Mooi,Upstream,Web Spider,4.04,-21.62,JAC16S3
Mooi,Upstream,Web Spider,4.83,-21.24,JAC16S3
Mooi,Upstream,Web Spider,4.92,-20.85,JAC16S3
Mooi,Upstream,Web Spider,7.1,-21.59,JAC16S3
Sterkspruit,Downstream,Brown trout,7.34,-19.88,JAC16S2
Sterkspruit,Downstream,Brown trout,7.03,-20.2,JAC16S2
Sterkspruit,Downstream,Brown trout,7.25,-19.75,JAC16S2
Sterkspruit,Downstream,Brown trout,7.48,-19.57,JAC16S2
Sterkspruit,Downstream,Brown trout,7.41,-20.2,JAC16S2
Sterkspruit,Downstream,Brown trout,7.22,-19.8,JAC16S2
Sterkspruit,Downstream,Brown trout,7.93,-19.96,JAC16S2
Sterkspruit,Downstream,Brown trout,8.21,-20.4,JAC16S2
Sterkspruit,Downstream,Ground spider,6.34,-22.06,JAC16S2
Sterkspruit,Downstream,Ground spider,6.59,-22.07,JAC16S2
Sterkspruit,Downstream,Ground spider,6.81,-21.93,JAC16S2
Sterkspruit,Downstream,Mountain catfish,8.9,-20.37,JAC16S2
Sterkspruit,Downstream,Mountain catfish,8.81,-20.36,JAC16S2
Sterkspruit,Downstream,Mountain catfish,8.7,-20.35,JAC16S2
Sterkspruit,Downstream,Mountain catfish,8.02,-20.24,JAC16S2
Sterkspruit,Downstream,Mountain catfish,8.55,-20.24,JAC16S2
Sterkspruit,Downstream,Mountain catfish,8.21,-20.18,JAC16S2
Sterkspruit,Downstream,Mountain catfish,9.17,-20.18,JAC16S2
Sterkspruit,Downstream,Mountain catfish,8.26,-20.16,JAC16S2
Sterkspruit,Downstream,Mountain catfish,8.87,-20.13,JAC16S2
Sterkspruit,Downstream,Web Spider,5.11,-22.07,JAC16S2
Sterkspruit,Downstream,Web Spider,5.19,-19.93,JAC16S2
Sterkspruit,Downstream,Web Spider,5.97,-24.95,JAC16S2
Sterkspruit,Downstream,Web Spider,3.13,-14.53,JAC16S2
Sterkspruit,Downstream,Web Spider,6.34,-23.28,JAC16S2
Sterkspruit,Upstream,Ground spider,2.58,-24.13,JAC16S1
Sterkspruit,Upstream,Ground spider,2.67,-24.12,JAC16S1
Sterkspruit,Upstream,Ground spider,5.51,-20.38,JAC16S1
Sterkspruit,Upstream,Web Spider,4.73,-22.74,JAC16S1
Sterkspruit,Upstream,Web Spider,4.22,-22.23,JAC16S1
Sterkspruit,Upstream,Web Spider,2.52,-24.86,JAC16S1
